{
	"info": {
		"_postman_id": "0f660d8f-e986-44b0-a1a6-b76310675608",
		"name": "local",
		"schema": "https://schema.getpostman.com/json/collection/v2.1.0/collection.json"
	},
	"item": [
		{
			"name": "registry",
			"item": [
				{
					"name": "v2",
					"item": [
						{
							"name": "_catalog",
							"request": {
								"method": "GET",
								"header": [
									{
										"key": "CF-RAY",
										"value": "1234",
										"type": "default"
									}
								],
								"url": {
									"raw": "http://{{registry-host}}/v2/_catalog",
									"protocol": "http",
									"host": [
										"{{registry-host}}"
									],
									"path": [
										"v2",
										"_catalog"
									]
								}
							},
							"response": []
						},
						{
							"name": "tag_list",
							"request": {
								"method": "GET",
								"header": [
									{
										"key": "CF-ray",
										"value": "1",
										"type": "default"
									},
									{
										"key": "X-REQUEST-ID",
										"value": "222",
										"type": "default"
									}
								],
								"url": {
									"raw": "http://{{registry-host}}/v2/:group/:repository-path/tags/list",
									"protocol": "http",
									"host": [
										"{{registry-host}}"
									],
									"path": [
										"v2",
										":group",
										":repository-path",
										"tags",
										"list"
									],
									"variable": [
										{
											"key": "group",
											"value": "onboarding",
											"description": "top-level group name"
										},
										{
											"key": "repository-path",
											"value": "container-registry-onboading-issue",
											"description": "repository-path"
										}
									]
								}
							},
							"response": []
						},
						{
							"name": "v2",
							"request": {
								"method": "GET",
								"header": [],
								"url": {
									"raw": "http://{{registry-host}}}/v2",
									"protocol": "http",
									"host": [
										"{{registry-host}}}"
									],
									"path": [
										"v2"
									]
								}
							},
							"response": []
						},
						{
							"name": "manifest",
							"request": {
								"method": "GET",
								"header": [],
								"url": {
									"raw": "http://{{registry-host}}}/v2/:group/:repository-path/manifests/:manifest-ref",
									"protocol": "http",
									"host": [
										"{{registry-host}}}"
									],
									"path": [
										"v2",
										":group",
										":repository-path",
										"manifests",
										":manifest-ref"
									],
									"variable": [
										{
											"key": "group",
											"value": "onboarding",
											"description": "group following the image naming convention here: https://docs.gitlab.com/ee/user/packages/container_registry/#image-naming-convention"
										},
										{
											"key": "repository-path",
											"value": "container-registry-onboading-issue",
											"description": "repository-path"
										},
										{
											"key": "manifest-ref",
											"value": "hello-main",
											"description": "the refrence to a manifest in the requester's namespace.\nCan either be the Content address (or digest) or the tag"
										}
									]
								}
							},
							"response": []
						},
						{
							"name": "blob",
							"request": {
								"method": "GET",
								"header": [],
								"url": {
									"raw": "http://{{registry-host}}}/v2/:group/:repository-path/blobs/:blob-ref",
									"protocol": "http",
									"host": [
										"{{registry-host}}}"
									],
									"path": [
										"v2",
										":group",
										":repository-path",
										"blobs",
										":blob-ref"
									],
									"variable": [
										{
											"key": "group",
											"value": "onboarding",
											"description": "group following the image naming convention here: https://docs.gitlab.com/ee/user/packages/container_registry/#image-naming-convention"
										},
										{
											"key": "repository-path",
											"value": "container-registry-onboading-issue",
											"description": "repository-path"
										},
										{
											"key": "blob-ref",
											"value": "sha256:1842c93ce66ef4b140121bbb9ec3badaa6b13b0f1a2a5a41e0bf5e4c8be8f852",
											"description": "the refrence to a manifest in the requester's namespace.\nCan either be the Content address (or digest) or the tag"
										}
									]
								}
							},
							"response": []
						}
					],
					"auth": {
						"type": "bearer",
						"bearer": [
							{
								"key": "token",
								"value": "{{ADD_TOKEN_HERE}}",
								"type": "string"
							}
						]
					},
					"event": [
						{
							"listen": "prerequest",
							"script": {
								"type": "text/javascript",
								"exec": [
									""
								]
							}
						},
						{
							"listen": "test",
							"script": {
								"type": "text/javascript",
								"exec": [
									""
								]
							}
						}
					]
				},
				{
					"name": "gitlab",
					"item": [
						{
							"name": "self-size",
							"request": {
								"method": "GET",
								"header": [],
								"url": {
									"raw": "http://{{registry-host}}/gitlab/v1/repositories/suleimiahmed/registry-stg-feature/suleimiahmed/registry-stg-feature/?size=self",
									"protocol": "http",
									"host": [
										"{{registry-host}}"
									],
									"path": [
										"gitlab",
										"v1",
										"repositories",
										"suleimiahmed",
										"registry-stg-feature",
										"suleimiahmed",
										"registry-stg-feature",
										""
									],
									"query": [
										{
											"key": "size",
											"value": "self"
										}
									]
								}
							},
							"response": []
						},
						{
							"name": "list_path_repositories",
							"request": {
								"method": "GET",
								"header": [],
								"url": {
									"raw": "http://{{registry-host}}/gitlab/v1/path/:pathName:/repositories/list/",
									"protocol": "http",
									"host": [
										"{{registry-host}}"
									],
									"path": [
										"gitlab",
										"v1",
										"path",
										":pathName:",
										"repositories",
										"list",
										""
									],
									"query": [
										{
											"key": "last",
											"value": "",
											"disabled": true
										},
										{
											"key": "n",
											"value": "",
											"disabled": true
										}
									],
									"variable": [
										{
											"key": "pathName:",
											"value": ""
										}
									]
								}
							},
							"response": []
						}
					]
				}
			]
		}
	],
	"event": [
		{
			"listen": "prerequest",
			"script": {
				"type": "text/javascript",
				"exec": [
					""
				]
			}
		},
		{
			"listen": "test",
			"script": {
				"type": "text/javascript",
				"exec": [
					""
				]
			}
		}
	],
	"variable": [
		{
			"key": "registry-host",
			"value": "localhost:5000"
		}
	]
}